<svg width="64" height="69" viewBox="0 0 64 69" fill="none" xmlns="http://www.w3.org/2000/svg">
<path d="M32.5 7L58.0477 53.5H6.95225L32.5 7Z" fill="#F4F4F4"/>
<path d="M32.7201 4.8457L3.38672 55.5124H62.0534M32.7201 15.5124L52.8001 50.179H12.6401M30.0534 26.179V36.8457H35.3867V26.179M30.0534 42.179V47.5124H35.3867V42.179" fill="#ED6C02"/>
</svg>
